JobOptionsSvc        INFO # =======> /afs/cern.ch/work/m/marcocle/workspace/Gaudi/GaudiExamples/options/THistWrite.opts
JobOptionsSvc        INFO # (5,1): AuditorSvc.Auditors = ["ChronoAuditor"]
JobOptionsSvc        INFO # (12,1): ApplicationMgr.TopAlg = ["THistWrite"]
JobOptionsSvc        INFO # (15,1): MessageSvc.OutputLevel = 3
JobOptionsSvc        INFO # (16,1): MessageSvc.UseColors = 1
JobOptionsSvc        INFO # (17,1): THistSvc.OutputLevel = 2
JobOptionsSvc        INFO # (18,1): ApplicationMgr.OutputLevel = 1
JobOptionsSvc        INFO # (19,1): ServiceManager.OutputLevel = 2
JobOptionsSvc        INFO # (20,1): StatusCodeSvc.OutputLevel = 1
JobOptionsSvc        INFO # (25,1): THistSvc.Output += ["upd DATAFILE='tuple2.rt' TYP='ROOT' OPT='UPDATE'"]
JobOptionsSvc        INFO # (26,1): THistSvc.Output += ["rec DATAFILE='tuple3.rt' TYP='ROOT' OPT='RECREATE'"]
JobOptionsSvc        INFO # (28,1): THistSvc.PrintAll = 1
JobOptionsSvc        INFO # (33,1): ApplicationMgr.EvtMax = 20
JobOptionsSvc        INFO # (34,1): ApplicationMgr.EvtSel = "NONE"
JobOptionsSvc        INFO Job options successfully read in from /afs/cern.ch/work/m/marcocle/workspace/Gaudi/GaudiExamples/options/THistWrite.opts
ApplicationMgr    SUCCESS
====================================================================================================================================
                                                   Welcome to ApplicationMgr (GaudiCoreSvc v1r4)
                                          running on pclhcb117 on Mon Jun 24 12:15:46 2013
====================================================================================================================================[m
ApplicationMgr    VERBOSE declareMultiSvcType: declared service EvtDataSvc/EventDataSvc[m
ApplicationMgr    VERBOSE declareMultiSvcType: declared service DetDataSvc/DetectorDataSvc[m
ApplicationMgr    VERBOSE declareMultiSvcType: declared service HistogramSvc/HistogramDataSvc[m
ApplicationMgr    VERBOSE declareMultiSvcType: declared service HbookCnv::PersSvc/HbookHistSvc[m
ApplicationMgr    VERBOSE declareMultiSvcType: declared service RootHistCnv::PersSvc/RootHistSvc[m
ApplicationMgr    VERBOSE declareMultiSvcType: declared service EvtPersistencySvc/EventPersistencySvc[m
ApplicationMgr    VERBOSE declareMultiSvcType: declared service DetPersistencySvc/DetectorPersistencySvc[m
ApplicationMgr    VERBOSE declareMultiSvcType: declared service HistogramPersistencySvc/HistogramPersistencySvc[m
ApplicationMgr      DEBUG Loading declared DLL's[m
ApplicationMgr    VERBOSE addMultiSvc: added service EventLoopMgr/EventLoopMgr[m
ApplicationMgr       INFO Application Manager Configured successfully[m
THistSvc            DEBUG Property update for OutputLevel : new value = 2[m
THistSvc            DEBUG Delaying connection of Input Files until Initialize. now in OFFLINE[m
THistSvc            DEBUG Service base class initialized successfully[m
THistSvc            DEBUG Delaying connection of Input Files until Initialize. now in CONFIGURED[m
THistSvc            DEBUG Delaying connection of Input Files until Initialize. now in CONFIGURED[m
THistSvc            DEBUG got the FileMgr[m
THistSvc            DEBUG Opening TFile "tuple2.rt"  stream: "upd"  mode: "A" comp level: 1[m
THistSvc            DEBUG Opening TFile "tuple3.rt"  stream: "rec"  mode: "R" comp level: 1[m
THistSvc             INFO registered file [tuple3.rt]... [ok][m
THistSvc             INFO registered file [tuple2.rt]... [ok][m
THistSvc            DEBUG Historgram with id "TempHist1" is temporary[m
THistSvc            DEBUG Registering TH1F title: "Temporary Tree 1"  id: "/temp/TempHist1"  dir: root:/  file: none[m
THistSvc            DEBUG Historgram with id "other/TempHist1a" is temporary[m
THistSvc            DEBUG Registering TH1F title: "Temporary Tree 1a"  id: "/temp/other/TempHist1a"  dir: root:/other  file: none[m
[93;1mTHistSvc          WARNING no stream "new" associated with id: "/new/Tree2"[m
THistSvc            DEBUG Historgram with id "/new/Tree2" is temporary[m
THistSvc            DEBUG Registering TH1F title: "Tree 2"  id: "/new/Tree2"  dir: root:/  file: none[m
THistSvc            DEBUG Registering TH1F title: "1D Gaussian"  id: "/upd/xxx/gauss1d"  dir: tuple2.rt:/xxx  file: tuple2.rt[m
THistSvc            DEBUG Registering TH2F title: "2D Gaussian"  id: "/rec/gauss2d"  dir: tuple3.rt:/  file: tuple3.rt[m
THistSvc            DEBUG Registering TH3F title: "3D Gaussian"  id: "/rec/gauss3d"  dir: tuple3.rt:/  file: tuple3.rt[m
THistSvc            DEBUG Registering TProfile title: "profile"  id: "/rec/prof"  dir: tuple3.rt:/  file: tuple3.rt[m
THistSvc            DEBUG Registering TTree title: "tree title"  id: "/rec/trees/stuff/tree1"  dir: tuple3.rt:/trees/stuff  file: tuple3.rt[m
[93;1mEventLoopMgr      WARNING Unable to locate service "EventSelector" [m
[93;1mEventLoopMgr      WARNING No events will be processed from external input.[m
[93;1mHistogramPersis...WARNING Histograms saving not required.[m
ApplicationMgr       INFO Application Manager Initialized successfully[m
ApplicationMgr       INFO Application Manager Started successfully[m
RndmGenSvc.Engine    INFO Generator engine type:CLHEP::RanluxEngine[m
RndmGenSvc.Engine    INFO Current Seed:1234567 Luxury:3[m
RndmGenSvc           INFO Using Random engine:HepRndm::Engine<CLHEP::RanluxEngine>[m
THistSvc            DEBUG updateFiles()[m
THistSvc            DEBUG updateFiles()[m
THistSvc            DEBUG updateFiles()[m
THistSvc            DEBUG updateFiles()[m
THistSvc            DEBUG updateFiles()[m
THistSvc            DEBUG updateFiles()[m
THistSvc            DEBUG updateFiles()[m
THistSvc            DEBUG updateFiles()[m
THistSvc            DEBUG updateFiles()[m
THistSvc            DEBUG updateFiles()[m
THistSvc            DEBUG updateFiles()[m
THistSvc            DEBUG updateFiles()[m
THistSvc            DEBUG updateFiles()[m
THistSvc            DEBUG updateFiles()[m
THistSvc            DEBUG updateFiles()[m
THistSvc            DEBUG updateFiles()[m
THistSvc            DEBUG updateFiles()[m
THistSvc            DEBUG updateFiles()[m
THistSvc            DEBUG updateFiles()[m
THistSvc            DEBUG updateFiles()[m
ApplicationMgr       INFO Application Manager Stopped successfully[m
THistWrite           INFO Finalizing...[m
EventLoopMgr         INFO Histograms converted successfully according to request.[m
THistSvc            DEBUG THistSvc::finalize[m
THistSvc            DEBUG updateFiles()[m
THistSvc            DEBUG THistSvc::write()::List of Files connected in ROOT [m
THistSvc            DEBUG THistSvc::write()::List of Files connected in ROOT: "tuple2.rt"[m
THistSvc            DEBUG THistSvc::write()::List of Files connected in ROOT: "tuple3.rt"[m
THistSvc             INFO Listing contents of ROOT files: [m
THistSvc             INFO ==> File: tuple3.rt  stream: rec[m
TFile: name=tuple3.rt, title=, option=CREATE
TH1.Print Name  = 2Dgauss, Entries= 20000, Total sum= 19978
          Title = 2D Gaussian
          NbinsX= 100, xmin= -50, xmax=50, NbinsY= 100, ymin= -50, ymax=50
TH1.Print Name  = 3Dgauss, Entries= 20000, Total sum= 19944
          Title = 3D Gaussian
          NbinsX= 100, xmin= -50, xmax=50, NbinsY= 100, ymin= -50, ymax=50, NbinsZ= 100, zmin= -50, zmax=50
TH1.Print Name  = profile, Entries= 0, Total sum= 0
          Title = profile
          NbinsX= 100, xmin= -50, xmax=-50
******************************************************************************
*Tree    :treename  : tree title                                             *
*Entries :     1000 : Total =           14051 bytes  File  Size =       2338 *
*        :          : Tree compression factor =   6.63                       *
******************************************************************************
*Br    0 :branch1   : point1/I                                               *
*Entries :     1000 : Total  Size=       4565 bytes  File Size  =       1521 *
*Baskets :        1 : Basket Size=      32000 bytes  Compression=   2.68     *
*............................................................................*
*Br    1 :branch2   : point2/I                                               *
*Entries :     1000 : Total  Size=       4565 bytes  File Size  =        164 *
*Baskets :        1 : Basket Size=      32000 bytes  Compression=  24.87     *
*............................................................................*
*Br    2 :branch3   : point3/I                                               *
*Entries :     1000 : Total  Size=       4565 bytes  File Size  =        160 *
*Baskets :        1 : Basket Size=      32000 bytes  Compression=  25.49     *
*............................................................................*
THistSvc             INFO ==> File: tuple2.rt  stream: upd[m
TFile: name=tuple2.rt, title=, option=UPDATE
TH1.Print Name  = 1Dgauss, Entries= 20000, Total sum= 19984
          Title = 1D Gaussian
          NbinsX= 100, xmin= -50, xmax=50
ApplicationMgr       INFO Application Manager Finalized successfully[m
ApplicationMgr       INFO Application Manager Terminated successfully[m
